Run_amp_eff_model_Mock_4
…
#Pivot wider mock initial data
mock_ini_prop_tr <- mock_ini_prop  %>% 
    mutate(x=paste0(mock,'_',even_skew,'_',prop_type)) %>% select(-mock,-even_skew,-prop_type)

mock_ini_prop_tr <-
    inv.trans(
    input.X = mock_ini_prop_tr$BestTaxon,
    input.Y = mock_ini_prop_tr$x,
    input.Z = mock_ini_prop_tr$Prop)

#Show mock initial proportion data
mock_ini_prop_tr %>% rownames_to_column() %>% 
    as_tibble()

# A tibble: 37 × 13
   rowname         mock2_even_gDNA mock2_even_mtDNA mock3_even_gDNA mock3_even_mtDNA mock4_even_gDNA mock4_even_mtDNA mock2_skew_gDNA mock2_skew_mtDNA
   <chr>                     <dbl>            <dbl>           <dbl>            <dbl>           <dbl>            <dbl>           <dbl>            <dbl>
 1 Merluccius pro…          0.0646          0.0735           0.0714           0.0824         0.0428           0.0384          0.0272           0.0285 
 2 Engraulis mord…          0.0646          0.0919           0.0714           0.103          0.0428           0.0480          0.0543           0.0714 
 3 Sardinops sagax          0.0646          0.0861           0.0714           0.0965         0.0428           0.0449          0.0136           0.0167 
 4 Scomber japoni…          0.0646          0.0749           0.0714           0.0840         0                0               0.0238           0.0255 
 5 Thunnus alalun…          0.0646          0.00540          0                0              0                0               0.0204           0.00157
 6 Trachurus symm…          0.0646          0.0352           0.0714           0.0395         0.0428           0.0184          0.0170           0.00855
 7 Thaleichthys p…          0.0646          0.0605           0                0              0.00283          0.00209         0.00679          0.00587
 8 Microstomus pa…          0.0646          0.0352           0                0              0                0               0.204            0.102  
 9 Clupea pallasii          0.0646          0.0257           0                0              0.0122           0.00382         0.0119           0.00436
10 Oncorhynchus n…          0.0646          0.120            0                0              0.0428           0.0624          0.109            0.186  
# ℹ 27 more rows
# ℹ 4 more variables: mock3_skew_gDNA <dbl>, mock3_skew_mtDNA <dbl>, mock4_skew_gDNA <dbl>, mock4_skew_mtDNA <dbl>
…
# Select only the samples from Mock 2,3,and 4
mock_mb <-
    mb %>% 
    select(Species_name,
                 colnames(.)[grepl("^M([234])\\.([es])\\.",colnames(.))]) %>% 
    mutate(Species_name= if_else(is.na(Species_name),'Unknown',Species_name))%>% 
    column_to_rownames('Species_name') %>% 
    filter(rowSums(.)>0)

#Show MB reads data
mock_mb %>% rownames_to_column() %>% 
    as_tibble()

# A tibble: 83 × 19
   rowname                   M2.e.1_S1 M2.e.2_S2 M2.e.3_S3 M2.s.1_S9 M2.s.2_S10 M2.s.3_S11 M3.e.1_S4 M3.e.2_S5 M3.e.3_S6 M3.s.1_S12 M3.s.2_S13 M3.s.3_S14 M4.e.1_S127 M4.e.2_S128 M4.e.3_S129 M4.s.1_S130 M4.s.2_S131 M4.s.3_S132
   <chr>                         <int>     <int>     <int>     <int>      <int>      <int>     <int>     <int>     <int>      <int>      <int>      <int>       <int>       <int>       <int>       <int>       <int>       <int>
 1 Oncorhynchus tshawytscha       2466      2791      1867      1066       1393       1368      1594      2563      2113        579        757        627         936        1210        1848         930        1085         338
 2 Clupea pallasii                2773      3031      2186       473        582        545         0         0         0          0          0          0         448         536         855         561         547         109
 3 Stenobrachius leucopsarus         0         0         0         3          3          0     16340     42212     30462      26816      25182      34336           0           0           0           0           0           0
 4 Engraulis mordax               9428      9655      7206      8508      10113       9683      7410     11924     10412       7517       9254       7953        3804        4346        7942        5030        4765        1169
 5 Artedius harringtoni              0         0         0         0          0          0         0         0         0          0          0          0        8045       10616       16349       44521       47180       11369
 6 Merluccius productus           6538      7206      4794      2349       2808       2555      5812      9961      7488       2780       3614       3246        2556        2756        5064        1913        1733         439
 7 Oncorhynchus nerka            13582     14001      8965     18635      23867      22222         0         0         0          0          0          0        5953        7864       12046       12032       12238        2757
 8 Sardinops sagax                7932      8792      5826      1416       1615       1573      6020      9666      8141        846        979        881        5119        5735       10255        1912        1443         407
 9 Oncorhynchus kisutch              0         0         0         0          0          0      3150      5203      4331       8686      11199       9271        2067        2614        3828        8240        9128        2154
10 Artedius fenestralis              0         0         0         0          0          0         0         0         0          0          0          0        7682        9043       14685       21597       21708        4772
# ℹ 73 more rows
…
#'species that are not in ini_mock but have high MB reads
suspecious_sp <- 
    mock4 %>% 
    filter(apply(., 1, function(row) any(is.na(row)))) %>% 
    select(colnames(mock_4_mb)) %>% 
    filter(apply(., 1, function(row) any(!is.na(row)))) %>% 
    arrange(desc(rowSums(.)))

suspecious_sp %>% rownames_to_column() %>% 
    as_tibble()

# A tibble: 59 × 7
   rowname                                                                     M4.e.1_S127 M4.e.2_S128 M4.e.3_S129 M4.s.1_S130 M4.s.2_S131 M4.s.3_S132
   <chr>                                                                             <int>       <int>       <int>       <int>       <int>       <int>
 1 Bryozoichthys lysimus | Chirolophis decoratus | Chirolophis nugator                 142         163         290         521         552         189
 2 Liparis pulchellus                                                                  131         136         211         495         534         154
 3 Hydrolagus colliei                                                                  238         232         514         217         260          57
 4 Myoxocephalus spp.  ||  Myoxocephalus jaok | Myoxocephalus polyacanthoceph…         116         128         226         441         425         115
 5 Undefined                                                                             6           7          20         163         147          31
 6 Sebastes spp.  ||  Sebastes caurinus | Sebastes maliger                              51          49         111          18          52          18
 7 Glyptocephalus stelleri | Glyptocephalus zachirus | Myzopsetta proboscidea           18          18          27          61          54          20
 8 Lagenorhynchus obliquidens                                                            0           7          14          64          71          16
 9 Oxylebius pictus                                                                     12          12          26          34          27           8
10 Liparis dennyi                                                                        8           2          24          47          19          11
# ℹ 49 more rows
…
1.7 Filter sp

#'Filter those species out (considering they're artifacts)
#'fixing the proportion for the remaining species that are actually 
#'in initial mocks and MB outputs
mock4 <- 
    mock4 %>%
  filter(!apply(., 1, function(row) any(is.na(row)))) %>% 
    mutate(mock4_even_mtDNA=mock4_even_mtDNA/sum(mock4_even_mtDNA)) %>% 
    mutate(mock4_skew_mtDNA=mock4_skew_mtDNA/sum(mock4_skew_mtDNA))

mock4 %>% rownames_to_column() %>% 
    as_tibble()

# A tibble: 24 × 9
   rowname                  mock4_even_mtDNA mock4_skew_mtDNA M4.e.1_S127 M4.e.2_S128 M4.e.3_S129 M4.s.1_S130 M4.s.2_S131 M4.s.3_S132
   <chr>                               <dbl>            <dbl>       <int>       <int>       <int>       <int>       <int>       <int>
 1 Merluccius productus              0.0405          0.0103          2556        2756        5064        1913        1733         439
 2 Engraulis mordax                  0.0507          0.0171          3804        4346        7942        5030        4765        1169
 3 Sardinops sagax                   0.0475          0.00468         5119        5735       10255        1912        1443         407
 4 Trachurus symmetricus             0.0194          0.00164          581         680        1145          83          80          17
 5 Thaleichthys pacificus            0.00221         0.000746          73         103         142         144         162          32
 6 Clupea pallasii                   0.00403         0.00136          448         536         855         561         547         109
 7 Oncorhynchus nerka                0.0659          0.0334          5953        7864       12046       12032       12238        2757
 8 Oncorhynchus tshawytscha          0.00306         0.000861         936        1210        1848         930        1085         338
 9 Cottus spp.                       0.0299          0.0252          1718        1945        3317        6039        6051        1286
10 Oncorhynchus keta                 0.0552          0.0311          2450        3110        4756        4942        5339        1129
# ℹ 14 more rows
…
#Split the mock df into even and skewed (2 data frames)

mock4_even <- mock4 %>% 
    select(Species,
        colnames(.)[grepl('even',colnames(.))],
        colnames(.)[grepl('M4.e',colnames(.))],
        sp_idx)

#Show mock 4 even
mock4_even %>% as_tibble()

# A tibble: 24 × 6
   Species                mock4_even_mtDNA M4.e.1_S127 M4.e.2_S128 M4.e.3_S129 sp_idx
   <chr>                             <dbl>       <int>       <int>       <int>  <int>
 1 Artedius fenestralis            0.0123         7682        9043       14685      1
 2 Artedius harringtoni            0.0878         8045       10616       16349      2
 3 Chitonotus pugetensis           0.140          7262        8588       14219      3
 4 Clupea pallasii                 0.00403         448         536         855      4
 5 Cottus spp.                     0.0299         1718        1945        3317      5
 6 Cymatogaster aggregata          0.0505         5605        6248       11053      6
 7 Engraulis mordax                0.0507         3804        4346        7942      7
 8 Enophrys bison                  0.0139          746         900        1409      8
 9 Gasterosteus aculeatus          0.0535         2538        2913        5216      9
10 Leptocottus armatus             0.0406         2079        2354        4051     10
# ℹ 14 more rows

mock4_skew <- mock4 %>% 
    select(Species,
                     colnames(.)[grepl('skew',colnames(.))],
                     colnames(.)[grepl('M4.s',colnames(.))],
                 sp_idx)

#Show mock 4 skew
mock4_skew %>% as_tibble()

# A tibble: 24 × 6
   Species                mock4_skew_mtDNA M4.s.1_S130 M4.s.2_S131 M4.s.3_S132 sp_idx
   <chr>                             <dbl>       <int>       <int>       <int>  <int>
 1 Artedius fenestralis            0.00302       21597       21708        4772      1
 2 Artedius harringtoni            0.148         44521       47180       11369      2
 3 Chitonotus pugetensis           0.138         24445       25644        5576      3
 4 Clupea pallasii                 0.00136         561         547         109      4
 5 Cottus spp.                     0.0252         6039        6051        1286      5
 6 Cymatogaster aggregata          0.0213         7936        7484        1803      6
 7 Engraulis mordax                0.0171         5030        4765        1169      7
 8 Enophrys bison                  0.0203         3973        4149         985      8
 9 Gasterosteus aculeatus          0.0513         9110        9175        2300      9
10 Leptocottus armatus             0.0217         3469        3443         837     10
# ℹ 14 more rows
…
3 Output

3.1 Extract amplification efficiencies

# mock 4 even
amp_eff_param_mock_4_even <-
    stan_data_mock_4_even$Species %>%
    cbind(.,
                amp_eff_param_extract(stanMod_3_mock_4_even))

amp_eff_param_mock_4_even %>% as_tibble()

# A tibble: 24 × 11
   Species                    mean    se_mean       sd   `2.5%`    `25%`    `50%`    `75%`  `97.5%` n_eff  Rhat
   <chr>                     <dbl>      <dbl>    <dbl>    <dbl>    <dbl>    <dbl>    <dbl>    <dbl> <dbl> <dbl>
 1 Artedius fenestralis    0.0522  0.00000558 0.000191  0.0518   0.0521   0.0522   0.0523   0.0526  1175.  1.00
 2 Artedius harringtoni    0.00975 0.00000562 0.000190  0.00937  0.00962  0.00975  0.00987  0.0101  1137.  1.01
 3 Chitonotus pugetensis  -0.00436 0.00000567 0.000195 -0.00473 -0.00449 -0.00436 -0.00423 -0.00398 1190.  1.00
 4 Clupea pallasii         0.00992 0.00000770 0.000509  0.00891  0.00959  0.00991  0.0103   0.0109  4376.  1.00
 5 Cottus spp.            -0.00235 0.00000626 0.000297 -0.00293 -0.00255 -0.00235 -0.00216 -0.00177 2247.  1.00
 6 Cymatogaster aggregata  0.0126  0.00000559 0.000210  0.0122   0.0124   0.0126   0.0127   0.0130  1410.  1.00
 7 Engraulis mordax        0.00445 0.00000604 0.000230  0.00401  0.00430  0.00445  0.00461  0.00490 1447.  1.00
 8 Enophrys bison         -0.00330 0.00000662 0.000410 -0.00408 -0.00357 -0.00330 -0.00302 -0.00249 3837.  1.00
 9 Gasterosteus aculeatus -0.00594 0.00000651 0.000262 -0.00644 -0.00611 -0.00595 -0.00576 -0.00542 1623.  1.00
10 Leptocottus armatus    -0.00483 0.00000587 0.000275 -0.00538 -0.00502 -0.00484 -0.00465 -0.00429 2192.  1.00
# ℹ 14 more rows

#mock 4 skew
amp_eff_param_mock_4_skew <-
    stan_data_mock_4_skew$Species %>%
    cbind(.,
                amp_eff_param_extract(stanMod_3_mock_4_skew))

amp_eff_param_mock_4_skew %>% as_tibble()

# A tibble: 24 × 11
   Species                    mean    se_mean       sd   `2.5%`    `25%`    `50%`    `75%`   `97.5%` n_eff  Rhat
   <chr>                     <dbl>      <dbl>    <dbl>    <dbl>    <dbl>    <dbl>    <dbl>     <dbl> <dbl> <dbl>
 1 Artedius fenestralis    0.0806  0.00000724 0.000206  0.0802   0.0804   0.0806   0.0807   0.0810    809.  1.00
 2 Artedius harringtoni    0.00865 0.00000711 0.000191  0.00828  0.00852  0.00865  0.00878  0.00903   721.  1.00
 3 Chitonotus pugetensis  -0.00386 0.00000720 0.000203 -0.00425 -0.00399 -0.00386 -0.00372 -0.00346   796.  1.00
 4 Clupea pallasii         0.00975 0.0000108  0.000609  0.00854  0.00935  0.00975  0.0102   0.0109   3159.  1.00
 5 Cottus spp.             0.00230 0.00000737 0.000257  0.00181  0.00213  0.00230  0.00248  0.00280  1220.  1.00
 6 Cymatogaster aggregata  0.0118  0.00000770 0.000245  0.0113   0.0116   0.0118   0.0120   0.0123   1010.  1.00
 7 Engraulis mordax        0.00647 0.00000756 0.000278  0.00593  0.00628  0.00647  0.00665  0.00703  1356.  1.00
 8 Enophrys bison         -0.00139 0.00000774 0.000294 -0.00196 -0.00159 -0.00139 -0.00118 -0.000811 1444.  1.00
 9 Gasterosteus aculeatus -0.00395 0.00000712 0.000235 -0.00441 -0.00411 -0.00394 -0.00379 -0.00349  1089.  1.00
10 Leptocottus armatus    -0.00638 0.00000830 0.000307 -0.00700 -0.00659 -0.00638 -0.00617 -0.00580  1371.  1.00
# ℹ 14 more rows
…
