Run_amp_eff_model_Mock_2
…
#Pivot wider mock initial data
mock_ini_prop_tr <- mock_ini_prop  %>% 
    mutate(x=paste0(mock,'_',even_skew,'_',prop_type)) %>% select(-mock,-even_skew,-prop_type)

mock_ini_prop_tr <-
    inv.trans(
    input.X = mock_ini_prop_tr$BestTaxon,
    input.Y = mock_ini_prop_tr$x,
    input.Z = mock_ini_prop_tr$Prop)

#Show mock initial proportion data
mock_ini_prop_tr %>% rownames_to_column() %>% 
    as_tibble()

# A tibble: 37 × 13
   rowname         mock2_even_gDNA mock2_even_mtDNA mock3_even_gDNA mock3_even_mtDNA mock4_even_gDNA mock4_even_mtDNA mock2_skew_gDNA mock2_skew_mtDNA
   <chr>                     <dbl>            <dbl>           <dbl>            <dbl>           <dbl>            <dbl>           <dbl>            <dbl>
 1 Merluccius pro…          0.0646          0.0735           0.0714           0.0824         0.0428           0.0384          0.0272           0.0285 
 2 Engraulis mord…          0.0646          0.0919           0.0714           0.103          0.0428           0.0480          0.0543           0.0714 
 3 Sardinops sagax          0.0646          0.0861           0.0714           0.0965         0.0428           0.0449          0.0136           0.0167 
 4 Scomber japoni…          0.0646          0.0749           0.0714           0.0840         0                0               0.0238           0.0255 
 5 Thunnus alalun…          0.0646          0.00540          0                0              0                0               0.0204           0.00157
 6 Trachurus symm…          0.0646          0.0352           0.0714           0.0395         0.0428           0.0184          0.0170           0.00855
 7 Thaleichthys p…          0.0646          0.0605           0                0              0.00283          0.00209         0.00679          0.00587
 8 Microstomus pa…          0.0646          0.0352           0                0              0                0               0.204            0.102  
 9 Clupea pallasii          0.0646          0.0257           0                0              0.0122           0.00382         0.0119           0.00436
10 Oncorhynchus n…          0.0646          0.120            0                0              0.0428           0.0624          0.109            0.186  
# ℹ 27 more rows
# ℹ 4 more variables: mock3_skew_gDNA <dbl>, mock3_skew_mtDNA <dbl>, mock4_skew_gDNA <dbl>, mock4_skew_mtDNA <dbl>
…
