Run_amp_eff_model_Mock_1-4
…
# Show all mocks
all_mock_w %>% rownames_to_column() %>% 
  as_tibble()

# A tibble: 39 × 10
   rowname                    M1_even M1_even_2  M1_skew  M2_even  M2_skew  M3_even  M3_skew  M4_even   M4_skew
   <chr>                        <dbl>     <dbl>    <dbl>    <dbl>    <dbl>    <dbl>    <dbl>    <dbl>     <dbl>
 1 Clupea pallasii          -0.0137   -0.00972  -0.00294  0.00497  0.00400 NA       NA        0.00992  0.00975 
 2 Diogenichthys atlanticus -0.00218   0.00235   0.00330 NA       NA       NA       NA       NA       NA       
 3 Engraulis mordax         -0.000982  0.000377  0.00280  0.00326  0.00705  0.00112  0.00391  0.00445  0.00647 
 4 Hippoglossus stenolepis   0.000229  0.00372   0.00303 NA       NA       NA       NA       NA       NA       
 5 Leuroglossus stilbius    -0.00483  -0.00789  -0.00736 NA       NA       NA       NA       NA       NA       
 6 Oncorhynchus nerka       -0.0113   -0.00339  -0.00930  0.00480  0.00414 NA       NA        0.00932  0.0120  
 7 Oncorhynchus tshawytscha -0.0106   -0.00548  -0.00779  0.0223   0.0510   0.0277   0.0232   0.0326   0.0318  
 8 Sardinops sagax          -0.0110   -0.0113   -0.0112   0.00125 -0.00115 -0.00245 -0.00356  0.0121   0.0105  
 9 Thaleichthys pacificus   -0.00615  -0.00284  -0.00491 -0.0138  -0.0141  NA       NA       -0.00570 -0.000509
10 Trachurus symmetricus    -0.000888  0.00344   0.00903 -0.0176  -0.0176  -0.0195  -0.0122  -0.0143  -0.0122  
# ℹ 29 more rows
…
